<svg xmlns="http://www.w3.org/2000/svg" xmlns:xlink="http://www.w3.org/1999/xlink" xmlns:inkscape="http://www.inkscape.org/namespaces/inkscape" height="100" width="300" id="color_svg" version="1.1">
  <defs id="defs6">
    <linearGradient id="lg1" style="opacity:0.3065834937705847">
      <stop id="stop849" offset="0" style="stop-color:#c195c8;stop-opacity:1;opacity:0.45875432626250323"/>
      <stop id="stop851" offset="1" style="stop-color:#2d6641;stop-opacity:1;opacity:0.5173833654791902"/>
    </linearGradient>
    <linearGradient id="lg2">
      <stop id="stop841" offset="0" style="stop-color:#75507b;stop-opacity:1"/>
      <stop id="stop843" offset="1" style="stop-color:#cc0000;stop-opacity:1"/>
    </linearGradient>
    <linearGradient id="ColorName" inkscape:swatch="solid" style="opacity:0.4425885666504563">
      <stop id="stop841" offset="0" style="stop-color:#135b84;stop-opacity:1;opacity:0.891352154481363"/>
    </linearGradient>
    <linearGradient gradientUnits="userSpaceOnUse" y2="55" x2="235" y1="15" x1="195" id="slg1" xlink:href="#lg2"/>
    <linearGradient gradientUnits="userSpaceOnUse" y2="15" x2="235" y1="55" x1="195" id="slg2" xlink:href="#lg1" style="opacity:0.384656359370384"/>
    <linearGradient gradientUnits="userSpaceOnUse" y2="15" x2="265" y1="55" x1="195" id="slg3" xlink:href="#lg1" style="opacity:0.04522622434122048"/>
    <linearGradient gradientUnits="userSpaceOnUse" y2="15" x2="265" y1="55" x1="195" id="slg4" xlink:href="#ColorName" style="opacity:0.18290702022342897"/>
    <style id="style0"><![CDATA[
#r2 {
  fill:#3465a4;
  stroke:#729fcf;
  stop-color:blue;
}
    ]]></style>
  <linearGradient gradientUnits="userSpaceOnUse" y2="55" x2="235" y1="15" x1="195" xlink:href="#linearGradient4206" id="linearGradient288" style="opacity:0.5560906797565389"/>
    <linearGradient id="linearGradient4206" style="opacity:0.654391448062929">
      <stop id="stop841" offset="0" style="stop-color:#949494;stop-opacity:1;opacity:0.37100175066610963"/>
      <stop id="stop843" offset="1" style="stop-color:#f96436;stop-opacity:1;opacity:0.13931783662041597"/>
    </linearGradient>
    </defs>
  <!--Regular shape with style properties-->
  <rect y="15" x="10" height="40" width="40" id="r1" style="opacity:0.9603208804310026;fill:#847ab3;fill-opacity:0.9;stroke:#b53eb4;stroke-width:10;stroke-miterlimit:4;stroke-dasharray:none;stroke-opacity:0.5;paint-order:markers fill stroke;stop-color:red"/>
  <!--Regular shape with css styles-->
  <rect y="15" x="60" height="40" width="40" id="r2" style="opacity:0.6457332303857672;fill-opacity:1;stroke-width:10;stroke-miterlimit:4;stroke-dasharray:none;stroke-opacity:1;paint-order:markers fill stroke;stroke:#9ed3e9;fill:#24267b"/>
  <!--Regular shape with element attributes-->
  <rect y="15" x="110" height="40" width="40" id="r3" fill="#cc0000" fill-opacity="0.9" stroke="#2e3436" stroke-opacity="0.5" style="opacity:0.5447130410053486;stroke:#3c4b42;stroke-width:10;stroke-miterlimit:4;stroke-dasharray:none;paint-order:markers fill stroke;stop-color:red;fill:#3b1232"/>
  <!--Regular shape with swatch-->
  <rect y="15" x="160" height="40" width="40" id="r4" style="opacity:0.18265421095187673;fill:url(#slg4);fill-opacity:1;stroke:url(#slg2);stroke-width:10;stroke-miterlimit:4;stroke-dasharray:none;stroke-opacity:0.5;paint-order:markers fill stroke;stop-color:#624748"/>
  <!--Regular shape with gradients-->
  <rect y="15" x="210" height="40" width="40" id="r4" style="opacity:1;fill:url(#slg1);fill-opacity:1;stroke:url(#slg2);stroke-width:10;stroke-miterlimit:4;stroke-dasharray:none;stroke-opacity:0.5;paint-order:markers fill stroke;stop-color:#000000"/>
  <!--A copy of the gradient to test url hygiene-->
  <rect y="15" x="260" height="40" width="40" id="r5" style="opacity:0.016608279370920576;fill:url(#slg1);fill-opacity:1;stroke:url(#slg3);stroke-width:10;stroke-miterlimit:4;stroke-dasharray:none;stroke-opacity:0.5;paint-order:markers fill stroke;stop-color:#392a37"/>
</svg>