999
"DXF R12 Output" (www.mydxf.blogspot.com)
 0 
SECTION
 2 
HEADER
 9 
$ACADVER
 1 
AC1009
 9 
$EXTMIN
 10 
 0 
 20 
 0 
 9 
$EXTMAX
 10 
 8.5 
 20 
 11 
 0 
ENDSEC
 0 
SECTION
 2 
ENTITIES
0
LINE
8
Layer 1
10
10.690400
20
995.563000
11
-1.328020
21
999.982000
0
LINE
8
Layer 1
10
-1.328020
20
999.982000
11
10.690400
21
1004.400000
0
LINE
8
Layer 1
10
10.690400
20
1004.400000
11
10.060854
21
1003.380031
0
LINE
8
Layer 1
10
10.060854
20
1003.380031
11
9.611955
21
1002.292187
0
LINE
8
Layer 1
10
9.611955
20
1002.292187
11
9.343316
21
1001.158312
0
LINE
8
Layer 1
10
9.343316
20
1001.158312
11
9.254547
21
1000.000250
0
LINE
8
Layer 1
10
9.254547
20
1000.000250
11
9.345260
21
998.839844
0
LINE
8
Layer 1
10
9.345260
20
998.839844
11
9.615066
21
997.698938
0
LINE
8
Layer 1
10
9.615066
20
997.698938
11
10.063575
21
996.599375
0
LINE
8
Layer 1
10
10.063575
20
996.599375
11
10.690400
21
995.563000
0
LINE
8
Layer 1
10
10.690400
20
995.563000
11
10.690400
21
995.563000
0
LINE
8
Slide2
10
783.086000
20
522.176000
11
778.298582
21
518.896378
0
LINE
8
Slide2
10
778.298582
20
518.896378
11
773.061140
21
515.856405
0
LINE
8
Slide2
10
773.061140
20
515.856405
11
767.408501
21
513.062405
0
LINE
8
Slide2
10
767.408501
20
513.062405
11
761.375494
21
510.520703
0
LINE
8
Slide2
10
761.375494
20
510.520703
11
754.996946
21
508.237623
0
LINE
8
Slide2
10
754.996946
20
508.237623
11
748.307685
21
506.219490
0
LINE
8
Slide2
10
748.307685
20
506.219490
11
741.342539
21
504.472628
0
LINE
8
Slide2
10
741.342539
20
504.472628
11
734.136336
21
503.003362
0
LINE
8
Slide2
10
734.136336
20
503.003362
11
726.723904
21
501.818015
0
LINE
8
Slide2
10
726.723904
20
501.818015
11
719.140070
21
500.922913
0
LINE
8
Slide2
10
719.140070
20
500.922913
11
711.419663
21
500.324380
0
LINE
8
Slide2
10
711.419663
20
500.324380
11
703.597511
21
500.028740
0
LINE
8
Slide2
10
703.597511
20
500.028740
11
695.708440
21
500.042317
0
LINE
8
Slide2
10
695.708440
20
500.042317
11
687.787280
21
500.371437
0
LINE
8
Slide2
10
687.787280
20
500.371437
11
679.868857
21
501.022423
0
LINE
8
Slide2
10
679.868857
20
501.022423
11
671.988000
21
502.001600
0
LINE
8
Slide2
10
671.988000
20
502.001600
11
664.290662
21
503.295296
0
LINE
8
Slide2
10
664.290662
20
503.295296
11
656.914666
21
504.875782
0
LINE
8
Slide2
10
656.914666
20
504.875782
11
649.882571
21
506.728362
0
LINE
8
Slide2
10
649.882571
20
506.728362
11
643.216937
21
508.838337
0
LINE
8
Slide2
10
643.216937
20
508.838337
11
636.940323
21
511.191010
0
LINE
8
Slide2
10
636.940323
20
511.191010
11
631.075289
21
513.771684
0
LINE
8
Slide2
10
631.075289
20
513.771684
11
625.644396
21
516.565660
0
LINE
8
Slide2
10
625.644396
20
516.565660
11
620.670201
21
519.558242
0
LINE
8
Slide2
10
620.670201
20
519.558242
11
616.175267
21
522.734733
0
LINE
8
Slide2
10
616.175267
20
522.734733
11
612.182151
21
526.080433
0
LINE
8
Slide2
10
612.182151
20
526.080433
11
608.713414
21
529.580647
0
LINE
8
Slide2
10
608.713414
20
529.580647
11
605.791615
21
533.220677
0
LINE
8
Slide2
10
605.791615
20
533.220677
11
603.439315
21
536.985824
0
LINE
8
Slide2
10
603.439315
20
536.985824
11
601.679073
21
540.861392
0
LINE
8
Slide2
10
601.679073
20
540.861392
11
601.028023
21
542.835991
0
LINE
8
Slide2
10
601.028023
20
542.835991
11
600.533448
21
544.832683
0
LINE
8
Slide2
10
600.533448
20
544.832683
11
600.198167
21
546.849632
0
LINE
8
Slide2
10
600.198167
20
546.849632
11
600.025000
21
548.885000
0
LINE
8
Slide2
10
600.025000
20
548.885000
11
600.016516
21
550.922206
0
LINE
8
Slide2
10
600.016516
20
550.922206
11
600.171628
21
552.944624
0
LINE
8
Slide2
10
600.171628
20
552.944624
11
600.487682
21
554.950357
0
LINE
8
Slide2
10
600.487682
20
554.950357
11
600.962025
21
556.937507
0
LINE
8
Slide2
10
600.962025
20
556.937507
11
601.592004
21
558.904174
0
LINE
8
Slide2
10
601.592004
20
558.904174
11
602.374965
21
560.848461
0
LINE
8
Slide2
10
602.374965
20
560.848461
11
604.389220
21
564.662302
0
LINE
8
Slide2
10
604.389220
20
564.662302
11
606.983564
21
568.363843
0
LINE
8
Slide2
10
606.983564
20
568.363843
11
610.136769
21
571.937899
0
LINE
8
Slide2
10
610.136769
20
571.937899
11
613.827609
21
575.369284
0
LINE
8
Slide2
10
613.827609
20
575.369284
11
618.034857
21
578.642812
0
LINE
8
Slide2
10
618.034857
20
578.642812
11
622.737286
21
581.743298
0
LINE
8
Slide2
10
622.737286
20
581.743298
11
627.913669
21
584.655555
0
LINE
8
Slide2
10
627.913669
20
584.655555
11
633.542779
21
587.364398
0
LINE
8
Slide2
10
633.542779
20
587.364398
11
639.603390
21
589.854642
0
LINE
8
Slide2
10
639.603390
20
589.854642
11
646.074274
21
592.111099
0
LINE
8
Slide2
10
646.074274
20
592.111099
11
652.934205
21
594.118585
0
LINE
8
Slide2
10
652.934205
20
594.118585
11
660.161956
21
595.861914
0
LINE
8
Slide2
10
660.161956
20
595.861914
11
667.736300
21
597.325900
0
LINE
8
Slide2
10
667.736300
20
597.325900
11
675.522054
21
598.479801
0
LINE
8
Slide2
10
675.522054
20
598.479801
11
683.374602
21
599.306670
0
LINE
8
Slide2
10
683.374602
20
599.306670
11
691.258587
21
599.812050
0
LINE
8
Slide2
10
691.258587
20
599.812050
11
699.138650
21
600.001482
0
LINE
8
Slide2
10
699.138650
20
600.001482
11
706.979434
21
599.880509
0
LINE
8
Slide2
10
706.979434
20
599.880509
11
714.745581
21
599.454672
0
LINE
8
Slide2
10
714.745581
20
599.454672
11
722.401734
21
598.729512
0
LINE
8
Slide2
10
722.401734
20
598.729512
11
729.912533
21
597.710573
0
LINE
8
Slide2
10
729.912533
20
597.710573
11
737.242623
21
596.403395
0
LINE
8
Slide2
10
737.242623
20
596.403395
11
744.356644
21
594.813522
0
LINE
8
Slide2
10
744.356644
20
594.813522
11
751.219239
21
592.946493
0
LINE
8
Slide2
10
751.219239
20
592.946493
11
757.795050
21
590.807852
0
LINE
8
Slide2
10
757.795050
20
590.807852
11
764.048719
21
588.403141
0
LINE
8
Slide2
10
764.048719
20
588.403141
11
769.944889
21
585.737900
0
LINE
8
Slide2
10
769.944889
20
585.737900
11
775.448202
21
582.817673
0
LINE
8
Slide2
10
775.448202
20
582.817673
11
780.523300
21
579.648000
0
LINE
8
Slide2
10
780.523300
20
579.648000
11
700.000000
21
550.000000
0
LINE
8
Slide2
10
700.000000
20
550.000000
11
783.086000
21
522.176000
0
LINE
8
Slide2
10
100.000000
20
400.000000
11
200.000000
21
300.000000
0
LINE
8
Slide2
10
200.000000
20
300.000000
11
300.000000
21
400.000000
0
LINE
8
Slide2
10
300.000000
20
400.000000
11
400.000000
21
300.000000
0
LINE
8
Slide2
10
500.000000
20
400.000000
11
500.195312
21
395.703125
0
LINE
8
Slide2
10
500.195312
20
395.703125
11
500.659180
21
390.771484
0
LINE
8
Slide2
10
500.659180
20
390.771484
11
501.562500
21
384.375000
0
LINE
8
Slide2
10
501.562500
20
384.375000
11
503.051758
21
376.806641
0
LINE
8
Slide2
10
503.051758
20
376.806641
11
504.061890
21
372.674561
0
LINE
8
Slide2
10
504.061890
20
372.674561
11
505.273438
21
368.359375
0
LINE
8
Slide2
10
505.273438
20
368.359375
11
506.704712
21
363.897705
0
LINE
8
Slide2
10
506.704712
20
363.897705
11
508.374023
21
359.326172
0
LINE
8
Slide2
10
508.374023
20
359.326172
11
510.299683
21
354.681396
0
LINE
8
Slide2
10
510.299683
20
354.681396
11
512.500000
21
350.000000
0
LINE
8
Slide2
10
512.500000
20
350.000000
11
514.993286
21
345.318604
0
LINE
8
Slide2
10
514.993286
20
345.318604
11
517.797852
21
340.673828
0
LINE
8
Slide2
10
517.797852
20
340.673828
11
520.932007
21
336.102295
0
LINE
8
Slide2
10
520.932007
20
336.102295
11
524.414062
21
331.640625
0
LINE
8
Slide2
10
524.414062
20
331.640625
11
528.262329
21
327.325439
0
LINE
8
Slide2
10
528.262329
20
327.325439
11
532.495117
21
323.193359
0
LINE
8
Slide2
10
532.495117
20
323.193359
11
537.130737
21
319.281006
0
LINE
8
Slide2
10
537.130737
20
319.281006
11
542.187500
21
315.625000
0
LINE
8
Slide2
10
542.187500
20
315.625000
11
547.683716
21
312.261963
0
LINE
8
Slide2
10
547.683716
20
312.261963
11
553.637695
21
309.228516
0
LINE
8
Slide2
10
553.637695
20
309.228516
11
560.067749
21
306.561279
0
LINE
8
Slide2
10
560.067749
20
306.561279
11
566.992188
21
304.296875
0
LINE
8
Slide2
10
566.992188
20
304.296875
11
574.429321
21
302.471924
0
LINE
8
Slide2
10
574.429321
20
302.471924
11
582.397461
21
301.123047
0
LINE
8
Slide2
10
582.397461
20
301.123047
11
590.914917
21
300.286865
0
LINE
8
Slide2
10
590.914917
20
300.286865
11
600.000000
21
300.000000
0
LINE
8
Slide2
10
600.000000
20
300.000000
11
604.542542
21
300.072479
0
LINE
8
Slide2
10
604.542542
20
300.072479
11
608.801270
21
300.286865
0
LINE
8
Slide2
10
608.801270
20
300.286865
11
612.785339
21
300.638580
0
LINE
8
Slide2
10
612.785339
20
300.638580
11
616.503906
21
301.123047
0
LINE
8
Slide2
10
616.503906
20
301.123047
11
619.966125
21
301.735687
0
LINE
8
Slide2
10
619.966125
20
301.735687
11
623.181152
21
302.471924
0
LINE
8
Slide2
10
623.181152
20
302.471924
11
626.158142
21
303.327179
0
LINE
8
Slide2
10
626.158142
20
303.327179
11
628.906250
21
304.296875
0
LINE
8
Slide2
10
628.906250
20
304.296875
11
631.434631
21
305.376434
0
LINE
8
Slide2
10
631.434631
20
305.376434
11
633.752441
21
306.561279
0
LINE
8
Slide2
10
633.752441
20
306.561279
11
635.868835
21
307.846832
0
LINE
8
Slide2
10
635.868835
20
307.846832
11
637.792969
21
309.228516
0
LINE
8
Slide2
10
637.792969
20
309.228516
11
639.533997
21
310.701752
0
LINE
8
Slide2
10
639.533997
20
310.701752
11
641.101074
21
312.261963
0
LINE
8
Slide2
10
641.101074
20
312.261963
11
642.503357
21
313.904572
0
LINE
8
Slide2
10
642.503357
20
313.904572
11
643.750000
21
315.625000
0
LINE
8
Slide2
10
643.750000
20
315.625000
11
644.850159
21
317.418671
0
LINE
8
Slide2
10
644.850159
20
317.418671
11
645.812988
21
319.281006
0
LINE
8
Slide2
10
645.812988
20
319.281006
11
647.363281
21
323.193359
0
LINE
8
Slide2
10
647.363281
20
323.193359
11
648.474121
21
327.325439
0
LINE
8
Slide2
10
648.474121
20
327.325439
11
649.218750
21
331.640625
0
LINE
8
Slide2
10
649.218750
20
331.640625
11
649.670410
21
336.102295
0
LINE
8
Slide2
10
649.670410
20
336.102295
11
649.902344
21
340.673828
0
LINE
8
Slide2
10
649.902344
20
340.673828
11
650.000000
21
350.000000
0
LINE
8
Slide2
10
650.000000
20
350.000000
11
650.097656
21
359.326172
0
LINE
8
Slide2
10
650.097656
20
359.326172
11
650.329590
21
363.897705
0
LINE
8
Slide2
10
650.329590
20
363.897705
11
650.781250
21
368.359375
0
LINE
8
Slide2
10
650.781250
20
368.359375
11
651.525879
21
372.674561
0
LINE
8
Slide2
10
651.525879
20
372.674561
11
652.636719
21
376.806641
0
LINE
8
Slide2
10
652.636719
20
376.806641
11
654.187012
21
380.718994
0
LINE
8
Slide2
10
654.187012
20
380.718994
11
655.149841
21
382.581329
0
LINE
8
Slide2
10
655.149841
20
382.581329
11
656.250000
21
384.375000
0
LINE
8
Slide2
10
656.250000
20
384.375000
11
657.496643
21
386.095428
0
LINE
8
Slide2
10
657.496643
20
386.095428
11
658.898926
21
387.738037
0
LINE
8
Slide2
10
658.898926
20
387.738037
11
660.466003
21
389.298248
0
LINE
8
Slide2
10
660.466003
20
389.298248
11
662.207031
21
390.771484
0
LINE
8
Slide2
10
662.207031
20
390.771484
11
664.131165
21
392.153168
0
LINE
8
Slide2
10
664.131165
20
392.153168
11
666.247559
21
393.438721
0
LINE
8
Slide2
10
666.247559
20
393.438721
11
668.565369
21
394.623566
0
LINE
8
Slide2
10
668.565369
20
394.623566
11
671.093750
21
395.703125
0
LINE
8
Slide2
10
671.093750
20
395.703125
11
673.841858
21
396.672821
0
LINE
8
Slide2
10
673.841858
20
396.672821
11
676.818848
21
397.528076
0
LINE
8
Slide2
10
676.818848
20
397.528076
11
680.033875
21
398.264313
0
LINE
8
Slide2
10
680.033875
20
398.264313
11
683.496094
21
398.876953
0
LINE
8
Slide2
10
683.496094
20
398.876953
11
687.214661
21
399.361420
0
LINE
8
Slide2
10
687.214661
20
399.361420
11
691.198730
21
399.713135
0
LINE
8
Slide2
10
691.198730
20
399.713135
11
695.457458
21
399.927521
0
LINE
8
Slide2
10
695.457458
20
399.927521
11
700.000000
21
400.000000
0
LINE
8
Slide2
10
700.000000
20
400.000000
11
709.085083
21
399.713135
0
LINE
8
Slide2
10
709.085083
20
399.713135
11
717.602539
21
398.876953
0
LINE
8
Slide2
10
717.602539
20
398.876953
11
725.570679
21
397.528076
0
LINE
8
Slide2
10
725.570679
20
397.528076
11
733.007812
21
395.703125
0
LINE
8
Slide2
10
733.007812
20
395.703125
11
739.932251
21
393.438721
0
LINE
8
Slide2
10
739.932251
20
393.438721
11
746.362305
21
390.771484
0
LINE
8
Slide2
10
746.362305
20
390.771484
11
752.316284
21
387.738037
0
LINE
8
Slide2
10
752.316284
20
387.738037
11
757.812500
21
384.375000
0
LINE
8
Slide2
10
757.812500
20
384.375000
11
762.869263
21
380.718994
0
LINE
8
Slide2
10
762.869263
20
380.718994
11
767.504883
21
376.806641
0
LINE
8
Slide2
10
767.504883
20
376.806641
11
771.737671
21
372.674561
0
LINE
8
Slide2
10
771.737671
20
372.674561
11
775.585938
21
368.359375
0
LINE
8
Slide2
10
775.585938
20
368.359375
11
779.067993
21
363.897705
0
LINE
8
Slide2
10
779.067993
20
363.897705
11
782.202148
21
359.326172
0
LINE
8
Slide2
10
782.202148
20
359.326172
11
785.006714
21
354.681396
0
LINE
8
Slide2
10
785.006714
20
354.681396
11
787.500000
21
350.000000
0
LINE
8
Slide2
10
787.500000
20
350.000000
11
789.700317
21
345.318604
0
LINE
8
Slide2
10
789.700317
20
345.318604
11
791.625977
21
340.673828
0
LINE
8
Slide2
10
791.625977
20
340.673828
11
793.295288
21
336.102295
0
LINE
8
Slide2
10
793.295288
20
336.102295
11
794.726562
21
331.640625
0
LINE
8
Slide2
10
794.726562
20
331.640625
11
795.938110
21
327.325439
0
LINE
8
Slide2
10
795.938110
20
327.325439
11
796.948242
21
323.193359
0
LINE
8
Slide2
10
796.948242
20
323.193359
11
798.437500
21
315.625000
0
LINE
8
Slide2
10
798.437500
20
315.625000
11
799.340820
21
309.228516
0
LINE
8
Slide2
10
799.340820
20
309.228516
11
799.804688
21
304.296875
0
LINE
8
Slide2
10
799.804688
20
304.296875
11
800.000000
21
300.000000
0
LINE
8
Slide2
10
244.833000
20
110.860000
11
199.494100
21
118.994460
0
LINE
8
Slide2
10
199.494100
20
118.994460
11
167.089800
21
86.256960
0
LINE
8
Slide2
10
167.089800
20
86.256960
11
160.815650
21
131.890460
0
LINE
8
Slide2
10
160.815650
20
131.890460
11
119.666950
21
152.592260
0
LINE
8
Slide2
10
119.666950
20
152.592260
11
161.128150
21
172.660860
0
LINE
8
Slide2
10
161.128150
20
172.660860
11
168.101120
21
218.192860
0
LINE
8
Slide2
10
168.101120
20
218.192860
11
199.999720
21
184.962460
0
LINE
8
Slide2
10
199.999720
20
184.962460
11
245.457920
21
192.400930
0
LINE
8
Slide2
10
245.457920
20
192.400930
11
223.711120
21
151.794830
0
LINE
8
Slide2
10
223.711120
20
151.794830
11
244.833000
21
110.860000
 0 
ENDSEC
 0 
EOF